<?xml version="1.0" encoding="UTF-8" standalone="no"?>
<!-- Created with Inkscape (http://www.inkscape.org/) -->

<svg
   xmlns:dc="http://purl.org/dc/elements/1.1/"
   xmlns:cc="http://creativecommons.org/ns#"
   xmlns:rdf="http://www.w3.org/1999/02/22-rdf-syntax-ns#"
   xmlns:svg="http://www.w3.org/2000/svg"
   xmlns="http://www.w3.org/2000/svg"
   xmlns:xlink="http://www.w3.org/1999/xlink"
   xmlns:sodipodi="http://sodipodi.sourceforge.net/DTD/sodipodi-0.dtd"
   xmlns:inkscape="http://www.inkscape.org/namespaces/inkscape"
   sodipodi:docname="slider_handle_cr.svg"
   inkscape:version="0.48.2 r9819"
   version="1.1"
   id="svg2"
   height="24"
   width="24">
  <sodipodi:namedview
     id="base"
     pagecolor="#ffffff"
     bordercolor="#666666"
     borderopacity="1.0"
     inkscape:pageopacity="0.0"
     inkscape:pageshadow="2"
     inkscape:zoom="21.637467"
     inkscape:cx="14.988486"
     inkscape:cy="12.681324"
     inkscape:document-units="px"
     inkscape:current-layer="layer1"
     showgrid="true"
     inkscape:window-width="1234"
     inkscape:window-height="756"
     inkscape:window-x="46"
     inkscape:window-y="0"
     inkscape:window-maximized="1"
     inkscape:snap-global="false"
     gridtolerance="10000">
    <inkscape:grid
       type="xygrid"
       id="grid3202"
       empspacing="5"
       visible="true"
       enabled="true"
       snapvisiblegridlinesonly="true" />
  </sodipodi:namedview>
  <defs
     id="defs4">
    <linearGradient
       id="linearGradient4026">
      <stop
         id="stop4034"
         offset="0"
         style="stop-color:#ffffff;stop-opacity:1" />
      <stop
         style="stop-color:#f5f5f5;stop-opacity:1"
         offset="0.3103829"
         id="stop4038" />
      <stop
         style="stop-color:#ececec;stop-opacity:1"
         offset="0.37289497"
         id="stop4036" />
      <stop
         style="stop-color:#e8e4de;stop-opacity:1"
         offset="1"
         id="stop4030" />
    </linearGradient>
    <linearGradient
       id="linearGradient3995">
      <stop
         style="stop-color:#e8e4de;stop-opacity:1;"
         offset="0"
         id="stop3997" />
      <stop
         style="stop-color:#e8e4de;stop-opacity:1;"
         offset="1"
         id="stop3999" />
    </linearGradient>
    <linearGradient
       id="linearGradient3987">
      <stop
         style="stop-color:#a0a0a0;stop-opacity:1;"
         offset="0"
         id="stop3989" />
      <stop
         style="stop-color:#a0a0a0;stop-opacity:0;"
         offset="1"
         id="stop3991" />
    </linearGradient>
    <linearGradient
       inkscape:collect="always"
       xlink:href="#linearGradient3995"
       id="linearGradient4001"
       x1="358.34482"
       y1="657.21094"
       x2="373.33005"
       y2="657.21094"
       gradientUnits="userSpaceOnUse" />
    <linearGradient
       inkscape:collect="always"
       xlink:href="#linearGradient4026"
       id="linearGradient4032"
       x1="362.60071"
       y1="646.90521"
       x2="362.59567"
       y2="662.59155"
       gradientUnits="userSpaceOnUse"
       gradientTransform="translate(-6.0784311,1.8954249)" />
    <linearGradient
       inkscape:collect="always"
       xlink:href="#linearGradient4026"
       id="linearGradient4065"
       gradientUnits="userSpaceOnUse"
       gradientTransform="translate(-350.56389,385.35155)"
       x1="362.60071"
       y1="646.90521"
       x2="362.59567"
       y2="662.59155" />
  </defs>
  <metadata
     id="metadata7">
    <rdf:RDF>
      <cc:Work
         rdf:about="">
        <dc:format>image/svg+xml</dc:format>
        <dc:type
           rdf:resource="http://purl.org/dc/dcmitype/StillImage" />
      </cc:Work>
    </rdf:RDF>
  </metadata>
  <g
     inkscape:label="Layer 1"
     inkscape:groupmode="layer"
     id="layer1"
     transform="translate(0,-1028.3622)">
    <path
       style="fill:url(#linearGradient4065);fill-opacity:1;stroke:#505050;stroke-width:1;stroke-linecap:round;stroke-linejoin:miter;stroke-opacity:0.50196078"
       d="m 12.028511,1049.3004 c 2.61895,-2.6723 5.32769,-5.2542 8,-7.8726 -0.0427,-2.6739 -0.0228,-5.3483 -0.0654,-8.0222 -0.42846,-1.1875 -1.56292,-2.2858 -2.91161,-2.0917 -3.717,0.05 -7.4345001,0.053 -11.1514005,0.1122 -1.14392,0.1303 -2.02567,1.2528 -1.87863,2.3942 -0.0217,2.5993 -0.0972,5.2001 0.007,7.7985 2.5614,2.6679 5.3329304,5.1226 8.0004105,7.6816 z"
       inkscape:connector-curvature="0"
       id="path3119" />
  </g>
</svg>
